<svg width="18" height="18" viewBox="0 0 18 18" fill="none" xmlns="http://www.w3.org/2000/svg">
<path d="M17 1.91428L16.0858 1L9 8.08572L1.91428 1L1 1.91428L8.08572 9L1 16.0858L1.91428 17L9 9.91428L16.0858 17L17 16.0858L9.91428 9L17 1.91428Z" fill="#D8D8D8"/>
<path d="M17 1.91428L17.3536 2.26783L17.7071 1.91429L17.3536 1.56073L17 1.91428ZM16.0858 1L16.4393 0.646455L16.0858 0.292886L15.7322 0.646446L16.0858 1ZM9 8.08572L8.64645 8.43927L9 8.79283L9.35355 8.43927L9 8.08572ZM1.91428 1L2.26783 0.646447L1.91428 0.292893L1.56073 0.646447L1.91428 1ZM1 1.91428L0.646447 1.56073L0.292893 1.91428L0.646447 2.26783L1 1.91428ZM8.08572 9L8.43927 9.35355L8.79283 9L8.43927 8.64645L8.08572 9ZM1 16.0858L0.646446 15.7322L0.292886 16.0858L0.646455 16.4393L1 16.0858ZM1.91428 17L1.56073 17.3536L1.91429 17.7071L2.26783 17.3536L1.91428 17ZM9 9.91428L9.35355 9.56073L9 9.20717L8.64645 9.56073L9 9.91428ZM16.0858 17L15.7322 17.3536L16.0858 17.7071L16.4393 17.3536L16.0858 17ZM17 16.0858L17.3536 16.4393L17.7071 16.0858L17.3536 15.7322L17 16.0858ZM9.91428 9L9.56073 8.64645L9.20717 9L9.56073 9.35355L9.91428 9ZM17.3536 1.56073L16.4393 0.646455L15.7322 1.35354L16.6464 2.26782L17.3536 1.56073ZM15.7322 0.646446L8.64645 7.73217L9.35355 8.43927L16.4393 1.35355L15.7322 0.646446ZM9.35355 7.73217L2.26783 0.646447L1.56073 1.35355L8.64645 8.43927L9.35355 7.73217ZM1.56073 0.646447L0.646447 1.56073L1.35355 2.26783L2.26783 1.35355L1.56073 0.646447ZM0.646447 2.26783L7.73217 9.35355L8.43927 8.64645L1.35355 1.56073L0.646447 2.26783ZM7.73217 8.64645L0.646446 15.7322L1.35355 16.4393L8.43927 9.35355L7.73217 8.64645ZM0.646455 16.4393L1.56073 17.3536L2.26782 16.6464L1.35354 15.7322L0.646455 16.4393ZM2.26783 17.3536L9.35355 10.2678L8.64645 9.56073L1.56073 16.6464L2.26783 17.3536ZM8.64645 10.2678L15.7322 17.3536L16.4393 16.6464L9.35355 9.56073L8.64645 10.2678ZM16.4393 17.3536L17.3536 16.4393L16.6464 15.7322L15.7322 16.6464L16.4393 17.3536ZM17.3536 15.7322L10.2678 8.64645L9.56073 9.35355L16.6464 16.4393L17.3536 15.7322ZM10.2678 9.35355L17.3536 2.26783L16.6464 1.56073L9.56073 8.64645L10.2678 9.35355Z" fill="#D8D8D8"/>
</svg>
